Data wrangling
…
## Parsed with column specification:
## cols(
##   country = col_character(),
##   year = col_integer(),
##   pop = col_double(),
##   continent = col_character(),
##   lifeExp = col_double(),
##   gdpPercap = col_double()
## )

inspect the dataset

gapminder # looks at all the data

## # A tibble: 1,704 x 6
##    country      year      pop continent lifeExp gdpPercap
##    <chr>       <int>    <dbl> <chr>       <dbl>     <dbl>
##  1 Afghanistan  1952  8425333 Asia         28.8      779.
##  2 Afghanistan  1957  9240934 Asia         30.3      821.
##  3 Afghanistan  1962 10267083 Asia         32.0      853.
##  4 Afghanistan  1967 11537966 Asia         34.0      836.
##  5 Afghanistan  1972 13079460 Asia         36.1      740.
##  6 Afghanistan  1977 14880372 Asia         38.4      786.
##  7 Afghanistan  1982 12881816 Asia         39.9      978.
##  8 Afghanistan  1987 13867957 Asia         40.8      852.
##  9 Afghanistan  1992 16317921 Asia         41.7      649.
## 10 Afghanistan  1997 22227415 Asia         41.8      635.
## # ... with 1,694 more rows
…
filter(gapminder, country %in% c("Mexico", "Peru"))

## # A tibble: 24 x 6
##    country  year      pop continent lifeExp gdpPercap
##    <chr>   <int>    <dbl> <chr>       <dbl>     <dbl>
##  1 Mexico   1952 30144317 Americas     50.8     3478.
##  2 Mexico   1957 35015548 Americas     55.2     4132.
##  3 Mexico   1962 41121485 Americas     58.3     4582.
##  4 Mexico   1967 47995559 Americas     60.1     5755.
##  5 Mexico   1972 55984294 Americas     62.4     6809.
##  6 Mexico   1977 63759976 Americas     65.0     7675.
##  7 Mexico   1982 71640904 Americas     67.4     9611.
##  8 Mexico   1987 80122492 Americas     69.5     8688.
##  9 Mexico   1992 88111030 Americas     71.5     9472.
## 10 Mexico   1997 95895146 Americas     73.7     9767.
## # ... with 14 more rows
…
## # A tibble: 1 x 6
##   country  year       pop continent lifeExp gdpPercap
##   <chr>   <int>     <dbl> <chr>       <dbl>     <dbl>
## 1 Mexico   2002 102479927 Americas     74.9    10742.

sweden <- filter(gapminder, country == "Sweden") # assign variable sweden as the data for Country Sweden
mean(sweden$lifeExp) # mean of lifeExp in Sweden

## [1] 76.177

#select by columns
select(gapminder, year, lifeExp) # select only these columns

## # A tibble: 1,704 x 2
##     year lifeExp
##    <int>   <dbl>
##  1  1952    28.8
##  2  1957    30.3
##  3  1962    32.0
##  4  1967    34.0
##  5  1972    36.1
##  6  1977    38.4
##  7  1982    39.9
##  8  1987    40.8
##  9  1992    41.7
## 10  1997    41.8
## # ... with 1,694 more rows

select(gapminder, -continent, -lifeExp) # - will exclude these columns

## # A tibble: 1,704 x 4
##    country      year      pop gdpPercap
##    <chr>       <int>    <dbl>     <dbl>
##  1 Afghanistan  1952  8425333      779.
##  2 Afghanistan  1957  9240934      821.
##  3 Afghanistan  1962 10267083      853.
##  4 Afghanistan  1967 11537966      836.
##  5 Afghanistan  1972 13079460      740.
##  6 Afghanistan  1977 14880372      786.
##  7 Afghanistan  1982 12881816      978.
##  8 Afghanistan  1987 13867957      852.
##  9 Afghanistan  1992 16317921      649.
## 10 Afghanistan  1997 22227415      635.
## # ... with 1,694 more rows
…
gap_cambodia <- gapminder %>%
  filter(country == "Cambodia") %>%
  select(-continent, -lifeExp)

mutate adds new variables

create new column with the product of two other columns

gapminder %>%
  mutate(gdp = pop * gdpPercap)

## # A tibble: 1,704 x 7
##    country      year      pop continent lifeExp gdpPercap          gdp
##    <chr>       <int>    <dbl> <chr>       <dbl>     <dbl>        <dbl>
##  1 Afghanistan  1952  8425333 Asia         28.8      779.  6567086330.
##  2 Afghanistan  1957  9240934 Asia         30.3      821.  7585448670.
##  3 Afghanistan  1962 10267083 Asia         32.0      853.  8758855797.
##  4 Afghanistan  1967 11537966 Asia         34.0      836.  9648014150.
##  5 Afghanistan  1972 13079460 Asia         36.1      740.  9678553274.
##  6 Afghanistan  1977 14880372 Asia         38.4      786. 11697659231.
##  7 Afghanistan  1982 12881816 Asia         39.9      978. 12598563401.
##  8 Afghanistan  1987 13867957 Asia         40.8      852. 11820990309.
##  9 Afghanistan  1992 16317921 Asia         41.7      649. 10595901589.
## 10 Afghanistan  1997 22227415 Asia         41.8      635. 14121995875.
## # ... with 1,694 more rows

Challenge:

Find the maximum gdpPerCap of Egypt and Vietnam. Create a new column.

gapminder %>%
  filter(country %in% c("Egypt", "Vietnam")) %>%
  mutate(gdp = pop * gdpPercap) %>%
  mutate(max_gdp = max(gdp))

## # A tibble: 24 x 8
##    country  year     pop continent lifeExp gdpPercap        gdp    max_gdp
##    <chr>   <int>   <dbl> <chr>       <dbl>     <dbl>      <dbl>      <dbl>
##  1 Egypt    1952  2.22e7 Africa       41.9     1419.    3.15e10    4.48e11
##  2 Egypt    1957  2.50e7 Africa       44.4     1459.    3.65e10    4.48e11
##  3 Egypt    1962  2.82e7 Africa       47.0     1693.    4.77e10    4.48e11
##  4 Egypt    1967  3.17e7 Africa       49.3     1815.    5.75e10    4.48e11
##  5 Egypt    1972  3.48e7 Africa       51.1     2024.    7.05e10    4.48e11
##  6 Egypt    1977  3.88e7 Africa       53.3     2785.    1.08e11    4.48e11
##  7 Egypt    1982  4.57e7 Africa       56.0     3504.    1.60e11    4.48e11
##  8 Egypt    1987  5.28e7 Africa       59.8     3885.    2.05e11    4.48e11
##  9 Egypt    1992  5.94e7 Africa       63.7     3795.    2.25e11    4.48e11
## 10 Egypt    1997  6.61e7 Africa       67.2     4173.    2.76e11    4.48e11
## # ... with 14 more rows

OR

gapminder %>%
  filter(country %in% c("Egypt", "Vietnam")) %>%
  mutate(gdp = pop * gdpPercap, 
         max_gdp = max(gdp))

## # A tibble: 24 x 8
##    country  year     pop continent lifeExp gdpPercap        gdp    max_gdp
##    <chr>   <int>   <dbl> <chr>       <dbl>     <dbl>      <dbl>      <dbl>
##  1 Egypt    1952  2.22e7 Africa       41.9     1419.    3.15e10    4.48e11
##  2 Egypt    1957  2.50e7 Africa       44.4     1459.    3.65e10    4.48e11
##  3 Egypt    1962  2.82e7 Africa       47.0     1693.    4.77e10    4.48e11
##  4 Egypt    1967  3.17e7 Africa       49.3     1815.    5.75e10    4.48e11
##  5 Egypt    1972  3.48e7 Africa       51.1     2024.    7.05e10    4.48e11
##  6 Egypt    1977  3.88e7 Africa       53.3     2785.    1.08e11    4.48e11
##  7 Egypt    1982  4.57e7 Africa       56.0     3504.    1.60e11    4.48e11
##  8 Egypt    1987  5.28e7 Africa       59.8     3885.    2.05e11    4.48e11
##  9 Egypt    1992  5.94e7 Africa       63.7     3795.    2.25e11    4.48e11
## 10 Egypt    1997  6.61e7 Africa       67.2     4173.    2.76e11    4.48e11
## # ... with 14 more rows
…
group_by

gapminder %>%
  group_by(country) %>%
  mutate(gdp = pop * gdpPercap,
         max_gdp = max(gdp))

## # A tibble: 1,704 x 8
## # Groups:   country [142]
##    country    year     pop continent lifeExp gdpPercap       gdp   max_gdp
##    <chr>     <int>   <dbl> <chr>       <dbl>     <dbl>     <dbl>     <dbl>
##  1 Afghanis  1952  8.43e6 Asia         28.8      779.   6.57e 9   3.11e10
##  2 Afghanis  1957  9.24e6 Asia         30.3      821.   7.59e 9   3.11e10
##  3 Afghanis  1962  1.03e7 Asia         32.0      853.   8.76e 9   3.11e10
##  4 Afghanis  1967  1.15e7 Asia         34.0      836.   9.65e 9   3.11e10
##  5 Afghanis  1972  1.31e7 Asia         36.1      740.   9.68e 9   3.11e10
##  6 Afghanis  1977  1.49e7 Asia         38.4      786.   1.17e10   3.11e10
##  7 Afghanis  1982  1.29e7 Asia         39.9      978.   1.26e10   3.11e10
##  8 Afghanis  1987  1.39e7 Asia         40.8      852.   1.18e10   3.11e10
##  9 Afghanis  1992  1.63e7 Asia         41.7      649.   1.06e10   3.11e10
## 10 Afghanis  1997  2.22e7 Asia         41.8      635.   1.41e10   3.11e10
## # ... with 1,694 more rows

gap_summarized <- gapminder %>% #creating an object gap_summarized, objects are under Environment tab
  group_by(country) %>%
  mutate(gdp = pop * gdpPercap) %>%
  summarize(max_gdp = max(gdp)) %>%
  ungroup() %>%
  arrange(desc(max_gdp))

gap_summarized # calling gap_summarized to see the results

## # A tibble: 142 x 2
##    country        max_gdp
##    <chr>            <dbl>
##  1 United States  1.29e13
##  2 China          6.54e12
##  3 Japan          4.04e12
##  4 India          2.72e12
##  5 Germany        2.65e12
##  6 United Kingdom 2.02e12
##  7 France         1.86e12
##  8 Brazil         1.72e12
##  9 Italy          1.66e12
## 10 Mexico         1.30e12
## # ... with 132 more rows
co2 <- read_csv("https://raw.githubusercontent.com/OHI-Science/data-science-training/master/data/co2.csv")

## Parsed with column specification:
## cols(
##   country = col_character(),
##   co2_2007 = col_double()
## )

## create a new gapminder variable with only the 2007 data
gap_2007 <- gapminder %>%
  filter(year == 2007)

gap_2007

## # A tibble: 142 x 6
##    country      year       pop continent lifeExp gdpPercap
##    <chr>       <int>     <dbl> <chr>       <dbl>     <dbl>
##  1 Afghanistan  2007  31889923 Asia         43.8      975.
##  2 Albania      2007   3600523 Europe       76.4     5937.
##  3 Algeria      2007  33333216 Africa       72.3     6223.
##  4 Angola       2007  12420476 Africa       42.7     4797.
##  5 Argentina    2007  40301927 Americas     75.3    12779.
##  6 Australia    2007  20434176 Oceania      81.2    34435.
##  7 Austria      2007   8199783 Europe       79.8    36126.
##  8 Bahrain      2007    708573 Asia         75.6    29796.
##  9 Bangladesh   2007 150448339 Asia         64.1     1391.
## 10 Belgium      2007  10392226 Europe       79.4    33693.
## # ... with 132 more rows
…
